File;Scan(s);MSn;Secuencia corregida;Reference;MH+;DeltaM(abs);z;log(Prob);XC;DeltaCn;Sp;RSp;Ions;Count;D;Ascore;;;;;;;;;;;;;;;;;;;;;;;;;;;;;;;;;;;;;;;;;;;;;;;;;;;;;;;;;;;;;;;;;;;;;;;;;;;;;;;;;;;;;;;;;;;;;;;;;;;;;;;;;;;;;;;;;;;;;;;;;;;;IMAC_SDSPAGE_5.RAW;410;MS2;TPtPEPAEVETR;Q9UHY1|NRBP_HUMAN Nuclear receptor-binding protein.;1406,6;1,05;2;0,0;1,9;0,1;331,2;2;0,6;0;1,7;18,3;;;;;;;;;;;;;;;;;;;;;;;;;;;;;;;;;;;;;;;;;;;;;;;;;;;;;;;;;;;;;;;;;;;;;;;;;;;;;;;;;;;;;;;;;;;;;;;;;;;;;;;;;;;;;;;;;;;;;;;;;;;;
IMAC_SDSPAGE_5.RAW;411;MS3;TPtPEPAEVETR;Q9UHY1|NRBP_HUMAN Nuclear receptor-binding protein.;1308,7;0,49;2;0,0;1,8;0,0;561,8;1;0,7;0;1,0;8,0;;;;;;;;;;;;;;;;;;;;;;;;;;;;;;;;;;;;;;;;;;;;;;;;;;;;;;;;;;;;;;;;;;;;;;;;;;;;;;;;;;;;;;;;;;;;;;;;;;;;;;;;;;;;;;;;;;;;;;;;;;;;
IMAC_SDSPAGE_8.RAW;417;MS2;TPtPEPAEVETR;Q9UHY1|NRBP_HUMAN Nuclear receptor-binding protein.;1406,6;1,28;2;0,0;1,9;0,1;499,8;1;0,6;0;1,3;24,1;;;;;;;;;;;;;;;;;;;;;;;;;;;;;;;;;;;;;;;;;;;;;;;;;;;;;;;;;;;;;;;;;;;;;;;;;;;;;;;;;;;;;;;;;;;;;;;;;;;;;;;;;;;;;;;;;;;;;;;;;;;;
IMAC_SDSPAGE_8.RAW;418;MS3;TPtPEPAEVETR;Q9UHY1|NRBP_HUMAN Nuclear receptor-binding protein.;1308,7;0,22;2;0,0;1,3;0,1;249,3;12;0,5;0;0,3;6,7;;;;;;;;;;;;;;;;;;;;;;;;;;;;;;;;;;;;;;;;;;;;;;;;;;;;;;;;;;;;;;;;;;;;;;;;;;;;;;;;;;;;;;;;;;;;;;;;;;;;;;;;;;;;;;;;;;;;;;;;;;;;
TiO2_SDSPAGE_4.RAW;443;MS3;REEDEPEERsGDETPGSEVPGDK;Q1KMD3|HNRL2_HUMAN Heterogeneous nuclear ribonucleoprotein U-like protein 2 (Sc;2526,10;-1,39;3;-12,22;3,67;0,13;889,72;1;0,32;0;3,0;33,6;;;;;;;;;;;;;;;;;;;;;;;;;;;;;;;;;;;;;;;;;;;;;;;;;;;;;;;;;;;;;;;;;;;;;;;;;;;;;;;;;;;;;;;;;;;;;;;;;;;;;;;;;;;;;;;;;;;;;;;;;;;;
TiO2_SDSPAGE_4.RAW;511;MS2;QNGsNDSDRYsDNEEDSKIELK;P42167|LAP2B_HUMAN Lamina-associated polypeptide 2, isoforms beta/gamma (Thymo;2605,08;-0,35;3;-0,26;2,34;0,02;193,57;8;0,25;2;0,9;0,0;;;;;;;;;;;;;;;;;;;;;;;;;;;;;;;;;;;;;;;;;;;;;;;;;;;;;;;;;;;;;;;;;;;;;;;;;;;;;;;;;;;;;;;;;;;;;;;;;;;;;;;;;;;;;;;;;;;;;;;;;;;;
TiO2_SDSPAGE_4.RAW;512;MS3;QNGsNDSDRYsDNEEDSKIELK;P42167|LAP2B_HUMAN Lamina-associated polypeptide 2, isoforms beta/gamma (Thymop;2507,12;-1,61;3;-15,90;4,23;0,05;587,78;1;0,33;2;2,8;27,4;;;;;;;;;;;;;;;;;;;;;;;;;;;;;;;;;;;;;;;;;;;;;;;;;;;;;;;;;;;;;;;;;;;;;;;;;;;;;;;;;;;;;;;;;;;;;;;;;;;;;;;;;;;;;;;;;;;;;;;;;;;;
TiO2_SDSPAGE_8.RAW;609;MS2;GRLDsSEMDHsENEDYTMSSPLPGKK;Q9NTI5|PDS5B_HUMAN Sister chromatid cohesion protein PDS5 homolog B (Androgen-;3070,22;-0,21;3;0,00;4,44;0,02;264,87;4;0,22;1;2,6;0,0;;;;;;;;;;;;;;;;;;;;;;;;;;;;;;;;;;;;;;;;;;;;;;;;;;;;;;;;;;;;;;;;;;;;;;;;;;;;;;;;;;;;;;;;;;;;;;;;;;;;;;;;;;;;;;;;;;;;;;;;;;;;
TiO2_SDSPAGE_8.RAW;610;MS3;GRLDsSEMDHsENEDYTMSSPLPGKK;Q9NTI5|PDS5B_HUMAN Sister chromatid cohesion protein PDS5 homolog B (Androgen-;2972,26;-1,30;3;0,00;3,87;0,06;344,48;5;0,27;1;2,2;6,9;;;;;;;;;;;;;;;;;;;;;;;;;;;;;;;;;;;;;;;;;;;;;;;;;;;;;;;;;;;;;;;;;;;;;;;;;;;;;;;;;;;;;;;;;;;;;;;;;;;;;;;;;;;;;;;;;;;;;;;;;;;;
TiO2_SDSPAGE_4.RAW;819;MS2;PLKLVLKVGGNEVTELstGSSGHDSSLFEDK;Q9NPI1|BRD7_HUMAN Bromodomain-containing protein 7 (75 kDa bromodomain protein;3207,68;-0,48;3;0,00;2,98;0,29;308,05;7;0,21;0;3,3;6,3;;;;;;;;;;;;;;;;;;;;;;;;;;;;;;;;;;;;;;;;;;;;;;;;;;;;;;;;;;;;;;;;;;;;;;;;;;;;;;;;;;;;;;;;;;;;;;;;;;;;;;;;;;;;;;;;;;;;;;;;;;;;
TiO2_SDSPAGE_10.RAW;414;MS2;QAQAQEsEEEEESR;Q9NVM6|DJC17_HUMAN DnaJ homolog subfamily C member 17.;1729,65;-0,05;2;-0,11;3,12;0,50;345,31;1;0,46;0;6,2;45,3;;;;;;;;;;;;;;;;;;;;;;;;;;;;;;;;;;;;;;;;;;;;;;;;;;;;;;;;;;;;;;;;;;;;;;;;;;;;;;;;;;;;;;;;;;;;;;;;;;;;;;;;;;;;;;;;;;;;;;;;;;;;
TiO2_SDSPAGE_2.RAW;568;MS2;KETEsEAEDNLDDLEK;Q8IYB3|SRRM1_HUMAN Serine/arginine repetitive matrix protein 1 (Ser/Arg-related;1944,80;-0,35;2;-12,75;5,63;0,04;754,08;1;0,73;1;4,3;11,1;;;;;;;;;;;;;;;;;;;;;;;;;;;;;;;;;;;;;;;;;;;;;;;;;;;;;;;;;;;;;;;;;;;;;;;;;;;;;;;;;;;;;;;;;;;;;;;;;;;;;;;;;;;;;;;;;;;;;;;;;;;;
TiO2_SDSPAGE_2.RAW;569;MS3;KETEsEAEDNLDDLEK;Q8IYB3|SRRM1_HUMAN Serine/arginine repetitive matrix protein 1 (Ser/Arg-related;1846,83;-0,24;2;-15,84;4,43;0,48;2788,74;1;0,80;1;7,0;25,6;;;;;;;;;;;;;;;;;;;;;;;;;;;;;;;;;;;;;;;;;;;;;;;;;;;;;;;;;;;;;;;;;;;;;;;;;;;;;;;;;;;;;;;;;;;;;;;;;;;;;;;;;;;;;;;;;;;;;;;;;;;;
TiO2_SDSPAGE_5.RAW;635;MS2;KETEsEAEDNLDDLEK;Q8IYB3|SRRM1_HUMAN Serine/arginine repetitive matrix protein 1 (Ser/Arg-related;1944,80;-0,04;2;-1,97;3,30;0,15;419,06;1;0,53;1;3,7;7,0;;;;;;;;;;;;;;;;;;;;;;;;;;;;;;;;;;;;;;;;;;;;;;;;;;;;;;;;;;;;;;;;;;;;;;;;;;;;;;;;;;;;;;;;;;;;;;;;;;;;;;;;;;;;;;;;;;;;;;;;;;;;
TiO2_SDSPAGE_5.RAW;636;MS3;KEtESEAEDNLDDLEK;Q8IYB3|SRRM1_HUMAN Serine/arginine repetitive matrix protein 1 (Ser/Arg-relate;1846,83;-0,17;2;-11,04;3,61;0,44;1664,15;2;0,67;1;5,9;15,7;;;;;;;;;;;;;;;;;;;;;;;;;;;;;;;;;;;;;;;;;;;;;;;;;;;;;;;;;;;;;;;;;;;;;;;;;;;;;;;;;;;;;;;;;;;;;;;;;;;;;;;;;;;;;;;;;;;;;;;;;;;;
IMAC_SDSPAGE_6.RAW;642;MS3;SRsVPVSFYEIR;A8MV62|A8MV62_HUMAN Uncharacterized protein ENSP00000381108 (Fragment).;1421,8;-0,08;2;-9,5;2,7;0,3;849,8;2;0,8;0;4,1;22,2;;;;;;;;;;;;;;;;;;;;;;;;;;;;;;;;;;;;;;;;;;;;;;;;;;;;;;;;;;;;;;;;;;;;;;;;;;;;;;;;;;;;;;;;;;;;;;;;;;;;;;;;;;;;;;;;;;;;;;;;;;;;
IMAC_SDSPAGE_8.RAW;625;MS3;SRsVPVSFYEIR;A8MV62|A8MV62_HUMAN Uncharacterized protein ENSP00000381108 (Fragment).;1421,8;0,17;2;-12,6;2,7;0,3;957,3;2;0,8;0;4,0;11,0;;;;;;;;;;;;;;;;;;;;;;;;;;;;;;;;;;;;;;;;;;;;;;;;;;;;;;;;;;;;;;;;;;;;;;;;;;;;;;;;;;;;;;;;;;;;;;;;;;;;;;;;;;;;;;;;;;;;;;;;;;;;
IMAC_SDSPAGE_9.RAW;714;MS3;AsGEMASAQYITAALR;P54578|UBP14_HUMAN Ubiquitin carboxyl-terminal hydrolase 14 (EC 3.1.2.15) (Ubiq;1621,8;0,24;2;-11,1;2,5;0,3;1263,9;1;0,6;3;4,0;37,8;;;;;;;;;;;;;;;;;;;;;;;;;;;;;;;;;;;;;;;;;;;;;;;;;;;;;;;;;;;;;;;;;;;;;;;;;;;;;;;;;;;;;;;;;;;;;;;;;;;;;;;;;;;;;;;;;;;;;;;;;;;;
IMAC_SDSPAGE_7.RAW;641;MS3;AsVGsLPGLRITHSNAGHLR;Q86YR5|GPSM1_HUMAN G-protein-signaling modulator 1 (Activator of G-protein sig;2203,1;0,28;3;0,0;2,5;0,3;305,4;21;0,2;2;3,0;11,9;;;;;;;;;;;;;;;;;;;;;;;;;;;;;;;;;;;;;;;;;;;;;;;;;;;;;;;;;;;;;;;;;;;;;;;;;;;;;;;;;;;;;;;;;;;;;;;;;;;;;;;;;;;;;;;;;;;;;;;;;;;;
TiO2_SDSPAGE_11.RAW;1084;MS2;ITYLFyKLFTLLsWMLSVVLLLFLNVK;Q5GH70|XKR9_HUMAN XK-related protein 9.;3339,88;-0,90;3;0,00;4,26;0,15;499,13;3;0,22;0;3,3;5,8;;;;;;;;;;;;;;;;;;;;;;;;;;;;;;;;;;;;;;;;;;;;;;;;;;;;;;;;;;;;;;;;;;;;;;;;;;;;;;;;;;;;;;;;;;;;;;;;;;;;;;;;;;;;;;;;;;;;;;;;;;;;
TiO2_SDSPAGE_9.RAW;683;MS2;TEsPATAAETASEELDNR;Q9NTJ3|SMC4_HUMAN Structural maintenance of chromosomes protein 4 (Chromosome-;1971,82;-0,23;2;-8,77;4,07;0,01;181,33;7;0,33;3;2,6;6,1;;;;;;;;;;;;;;;;;;;;;;;;;;;;;;;;;;;;;;;;;;;;;;;;;;;;;;;;;;;;;;;;;;;;;;;;;;;;;;;;;;;;;;;;;;;;;;;;;;;;;;;;;;;;;;;;;;;;;;;;;;;;
TiO2_SDSPAGE_6.RAW;489;MS2;SGTAsGGSTPHLGGPGPGRPSSK;Q9C0K0|BC11B_HUMAN B-cell lymphoma/leukemia 11B (B-cell CLL/lymphoma 11B) (Radi;2128,98;-1,90;3;0,00;3,36;0,12;670,27;1;0,31;1;2,5;29,6;;;;;;;;;;;;;;;;;;;;;;;;;;;;;;;;;;;;;;;;;;;;;;;;;;;;;;;;;;;;;;;;;;;;;;;;;;;;;;;;;;;;;;;;;;;;;;;;;;;;;;;;;;;;;;;;;;;;;;;;;;;;
TiO2_SDSPAGE_6.RAW;659;MS2;SPGSNSKVPEIEVtVEGPNNNNPQTSAVR;P78347|GTF2I_HUMAN General transcription factor II-I (GTFII-I) (TFII-I) (Bruto;3101,45;-1,40;3;0,00;3,14;0,33;296,77;4;0,17;6;3,6;10,6;;;;;;;;;;;;;;;;;;;;;;;;;;;;;;;;;;;;;;;;;;;;;;;;;;;;;;;;;;;;;;;;;;;;;;;;;;;;;;;;;;;;;;;;;;;;;;;;;;;;;;;;;;;;;;;;;;;;;;;;;;;;
TiO2_SDSPAGE_9.RAW;406;MS3;LNSQWRQDMsISLAALELLsGLAKVK;Q9Y3G9|K1219_HUMAN Protein KIAA1219.;2933,55;1,92;3;-0,17;2,93;0,39;183,66;10;0,15;2;3,6;11,9;;;;;;;;;;;;;;;;;;;;;;;;;;;;;;;;;;;;;;;;;;;;;;;;;;;;;;;;;;;;;;;;;;;;;;;;;;;;;;;;;;;;;;;;;;;;;;;;;;;;;;;;;;;;;;;;;;;;;;;;;;;;
TiO2_SDSPAGE_6.RAW;806;MS2;TTGIVMDSGDGVTHTVPIyEGDALPHAtLR;Q562R6|Q562R6_HUMAN Actin-like protein (Fragment).;3185,51;-0,20;3;-7,37;3,41;0,22;923,06;1;0,23;0;3,6;25,7;;;;;;;;;;;;;;;;;;;;;;;;;;;;;;;;;;;;;;;;;;;;;;;;;;;;;;;;;;;;;;;;;;;;;;;;;;;;;;;;;;;;;;;;;;;;;;;;;;;;;;;;;;;;;;;;;;;;;;;;;;;;
TiO2_SDSPAGE_8.RAW;530;MS2;AQPSDNAPAKGNKsPSPPDGSPAATPEIR;O75514|BIN1_HUMAN Myc box-dependent-interacting protein 1 (Bridging integrator ;2937,37;0,72;3;-11,82;4,21;0,13;517,52;1;0,21;3;3,3;6,2;;;;;;;;;;;;;;;;;;;;;;;;;;;;;;;;;;;;;;;;;;;;;;;;;;;;;;;;;;;;;;;;;;;;;;;;;;;;;;;;;;;;;;;;;;;;;;;;;;;;;;;;;;;;;;;;;;;;;;;;;;;;
TiO2_SDSPAGE_5.RAW;487;MS2;QKsDAEEDGGTVsQEEEDR;P27824|CALX_HUMAN Calnexin precursor (Major histocompatibility complex class I ;2268,82;-0,10;2;-7,43;3,38;0,07;178,87;1;0,36;0;2,9;17,4;;;;;;;;;;;;;;;;;;;;;;;;;;;;;;;;;;;;;;;;;;;;;;;;;;;;;;;;;;;;;;;;;;;;;;;;;;;;;;;;;;;;;;;;;;;;;;;;;;;;;;;;;;;;;;;;;;;;;;;;;;;;
TiO2_SDSPAGE_4.RAW;893;MS2;tPESFLGPNAALVDLDSLVSRPGPTPPGAK;Q9Y6I3|EPN1_HUMAN Epsin-1 (EPS-15-interacting protein 1) (EH domain-binding mi;3083,54;-0,27;3;-6,95;3,01;0,23;259,52;2;0,18;0;3,2;2,8;;;;;;;;;;;;;;;;;;;;;;;;;;;;;;;;;;;;;;;;;;;;;;;;;;;;;;;;;;;;;;;;;;;;;;;;;;;;;;;;;;;;;;;;;;;;;;;;;;;;;;;;;;;;;;;;;;;;;;;;;;;;
TiO2_SDSPAGE_4.RAW;894;MS3;tPESFLGPNAALVDLDSLVSRPGPTPPGAK;Q9Y6I3|EPN1_HUMAN Epsin-1 (EPS-15-interacting protein 1) (EH domain-binding mit;2985,58;-1,37;3;-6,70;3,32;0,07;276,01;1;0,22;0;2,1;18,0;;;;;;;;;;;;;;;;;;;;;;;;;;;;;;;;;;;;;;;;;;;;;;;;;;;;;;;;;;;;;;;;;;;;;;;;;;;;;;;;;;;;;;;;;;;;;;;;;;;;;;;;;;;;;;;;;;;;;;;;;;;;
TiO2_SDSPAGE_6.RAW;874;MS2;EsmKDLDEEQAGQTDLEKIQFLLAQMVK;Q9H0J4|QRIC2_HUMAN Glutamine-rich protein 2.;3333,56;-0,34;3;0,00;3,92;0,24;453,81;8;0,18;0;3,7;8,4;;;;;;;;;;;;;;;;;;;;;;;;;;;;;;;;;;;;;;;;;;;;;;;;;;;;;;;;;;;;;;;;;;;;;;;;;;;;;;;;;;;;;;;;;;;;;;;;;;;;;;;;;;;;;;;;;;;;;;;;;;;;
IMAC_SDSPAGE_11.RAW;917;MS2;AMGIMNSFVNDIFERIAsEAsR;Q99880|H2B1L_HUMAN Histone H2B type 1-L (H2B.c) (H2B/c).;2618,1;1,37;3;0,0;3,0;0,3;549,9;1;0,2;2;3,7;57,1;;;;;;;;;;;;;;;;;;;;;;;;;;;;;;;;;;;;;;;;;;;;;;;;;;;;;;;;;;;;;;;;;;;;;;;;;;;;;;;;;;;;;;;;;;;;;;;;;;;;;;;;;;;;;;;;;;;;;;;;;;;;
TiO2_SDSPAGE_4.RAW;667;MS2;DQPtPVPTMtLFLMLNCIPSPITFPVPEK;Q30213|Q30213_HUMAN HLA-G protein (Fragment).;3443,61;-0,31;3;-10,22;3,61;0,15;233,70;16;0,16;0;2,6;3,4;;;;;;;;;;;;;;;;;;;;;;;;;;;;;;;;;;;;;;;;;;;;;;;;;;;;;;;;;;;;;;;;;;;;;;;;;;;;;;;;;;;;;;;;;;;;;;;;;;;;;;;;;;;;;;;;;;;;;;;;;;;;
IMAC_SDSPAGE_7.RAW;555;MS3;RIDISPsTFRK;Q9Y2W1|TR150_HUMAN Thyroid hormone receptor-associated protein 3 (Thyroid horm;1301,7;-0,31;3;-3,9;2,3;0,3;896,6;3;0,6;0;4,0;28,0;;;;;;;;;;;;;;;;;;;;;;;;;;;;;;;;;;;;;;;;;;;;;;;;;;;;;;;;;;;;;;;;;;;;;;;;;;;;;;;;;;;;;;;;;;;;;;;;;;;;;;;;;;;;;;;;;;;;;;;;;;;;
TiO2_SDSPAGE_2.RAW;590;MS3;APsIDGKEELDLAEK;Q9H0E9|BRD8_HUMAN Bromodomain-containing protein 8 (p120) (Skeletal muscle abun;1596,83;0,33;2;-11,40;3,39;0,39;986,98;1;0,68;1;5,5;1000,0;;;;;;;;;;;;;;;;;;;;;;;;;;;;;;;;;;;;;;;;;;;;;;;;;;;;;;;;;;;;;;;;;;;;;;;;;;;;;;;;;;;;;;;;;;;;;;;;;;;;;;;;;;;;;;;;;;;;;;;;;;;;
IMAC_SDSPAGE_8.RAW;337;MS3;SSDRRNsLEGYSR;Q8NDT2|RB15B_HUMAN Putative RNA-binding protein 15B (RNA-binding motif protein ;1508,7;0,36;3;0,0;2,1;0,4;429,5;1;0,4;1;4,4;36,8;;;;;;;;;;;;;;;;;;;;;;;;;;;;;;;;;;;;;;;;;;;;;;;;;;;;;;;;;;;;;;;;;;;;;;;;;;;;;;;;;;;;;;;;;;;;;;;;;;;;;;;;;;;;;;;;;;;;;;;;;;;;
TiO2_SDSPAGE_4.RAW;441;MS3;QDLGPLFVEDImtMVLCKPK;A8MTZ0|A8MTZ0_HUMAN Uncharacterized protein ENSP00000381337.;2430,15;1,80;3;-7,13;3,53;0,09;535,75;9;0,26;0;2,2;1000,0;;;;;;;;;;;;;;;;;;;;;;;;;;;;;;;;;;;;;;;;;;;;;;;;;;;;;;;;;;;;;;;;;;;;;;;;;;;;;;;;;;;;;;;;;;;;;;;;;;;;;;;;;;;;;;;;;;;;;;;;;;;;
TiO2_SDSPAGE_8.RAW;697;MS3;FEEESKEPVADEEEEDsDDDVEPITEFR;P54105|ICLN_HUMAN Methylosome subunit pICln (Chloride conductance regulatory pr;3296,39;-1,75;3;-27,14;5,72;0,23;2051,93;1;0,39;0;4,5;81,3;;;;;;;;;;;;;;;;;;;;;;;;;;;;;;;;;;;;;;;;;;;;;;;;;;;;;;;;;;;;;;;;;;;;;;;;;;;;;;;;;;;;;;;;;;;;;;;;;;;;;;;;;;;;;;;;;;;;;;;;;;;;
TiO2_SDSPAGE_7.RAW;454;MS2;QKAENFWtGDTsSDQLVLGK;Q6GPH6|K175L_HUMAN UPF0525 protein KIAA1754-like precursor.;2384,02;0,02;3;-0,02;3,01;0,08;578,63;18;0,27;0;2,1;19,1;;;;;;;;;;;;;;;;;;;;;;;;;;;;;;;;;;;;;;;;;;;;;;;;;;;;;;;;;;;;;;;;;;;;;;;;;;;;;;;;;;;;;;;;;;;;;;;;;;;;;;;;;;;;;;;;;;;;;;;;;;;;
TiO2_SDSPAGE_7.RAW;455;MS3;QKAENFWtGDTsSDQLVLGK;Q6GPH6|K175L_HUMAN UPF0525 protein KIAA1754-like precursor.;2286,06;-0,21;3;0,00;2,62;0,18;694,70;16;0,26;0;2,4;11,7;;;;;;;;;;;;;;;;;;;;;;;;;;;;;;;;;;;;;;;;;;;;;;;;;;;;;;;;;;;;;;;;;;;;;;;;;;;;;;;;;;;;;;;;;;;;;;;;;;;;;;;;;;;;;;;;;;;;;;;;;;;;
TiO2_SDSPAGE_9.RAW;469;MS2;QKAENFWtGDTsSDQLVLGK;Q6GPH6|K175L_HUMAN UPF0525 protein KIAA1754-like precursor.;2384,02;-0,57;3;0,00;2,79;0,02;550,76;8;0,28;0;1,4;19,1;;;;;;;;;;;;;;;;;;;;;;;;;;;;;;;;;;;;;;;;;;;;;;;;;;;;;;;;;;;;;;;;;;;;;;;;;;;;;;;;;;;;;;;;;;;;;;;;;;;;;;;;;;;;;;;;;;;;;;;;;;;;
TiO2_SDSPAGE_9.RAW;470;MS3;QKAENFWtGDTsSDQLVLGK;Q6GPH6|K175L_HUMAN UPF0525 protein KIAA1754-like precursor.;2286,06;-0,53;3;0,00;2,82;0,02;579,93;21;0,26;0;1,2;12,6;;;;;;;;;;;;;;;;;;;;;;;;;;;;;;;;;;;;;;;;;;;;;;;;;;;;;;;;;;;;;;;;;;;;;;;;;;;;;;;;;;;;;;;;;;;;;;;;;;;;;;;;;;;;;;;;;;;;;;;;;;;;
TiO2_SDSPAGE_7.RAW;521;MS2;SEGsPVLPHEPAK;Q9UKE3|TNIK_HUMAN TRAF2 and NCK-interacting protein kinase (EC 2.7.11.1).;1427,66;-1,51;2;-4,86;3,07;0,10;388,29;2;0,61;2;2,8;12,5;;;;;;;;;;;;;;;;;;;;;;;;;;;;;;;;;;;;;;;;;;;;;;;;;;;;;;;;;;;;;;;;;;;;;;;;;;;;;;;;;;;;;;;;;;;;;;;;;;;;;;;;;;;;;;;;;;;;;;;;;;;;
TiO2_SDSPAGE_7.RAW;522;MS3;SEGsPVLPHEPAK;Q9UKE3|TNIK_HUMAN TRAF2 and NCK-interacting protein kinase (EC 2.7.11.1).;1329,70;-1,33;2;-14,26;2,79;0,07;1218,67;1;0,75;2;2,4;33,4;;;;;;;;;;;;;;;;;;;;;;;;;;;;;;;;;;;;;;;;;;;;;;;;;;;;;;;;;;;;;;;;;;;;;;;;;;;;;;;;;;;;;;;;;;;;;;;;;;;;;;;;;;;;;;;;;;;;;;;;;;;;
TiO2_SDSPAGE_9.RAW;451;MS2;RGDSEsEEDEQDSEEVR;Q9NZ63|CI078_HUMAN Uncharacterized protein C9orf78 (Hepatocellular carcinoma-as;2075,77;0,68;2;-0,98;4,31;0,07;276,78;1;0,40;0;3,6;5,2;;;;;;;;;;;;;;;;;;;;;;;;;;;;;;;;;;;;;;;;;;;;;;;;;;;;;;;;;;;;;;;;;;;;;;;;;;;;;;;;;;;;;;;;;;;;;;;;;;;;;;;;;;;;;;;;;;;;;;;;;;;;
TiO2_SDSPAGE_9.RAW;452;MS3;RGDSEsEEDEQDSEEVR;Q9NZ63|CI078_HUMAN Uncharacterized protein C9orf78 (Hepatocellular carcinoma-a;1977,81;1,21;2;-7,96;2,37;0,37;200,03;2;0,44;0;3,8;13,2;;;;;;;;;;;;;;;;;;;;;;;;;;;;;;;;;;;;;;;;;;;;;;;;;;;;;;;;;;;;;;;;;;;;;;;;;;;;;;;;;;;;;;;;;;;;;;;;;;;;;;;;;;;;;;;;;;;;;;;;;;;;
TiO2_SDSPAGE_9.RAW;598;MS2;SQAASQKVsPPEDEEVKNLAEK;Q8IWZ8|SF04_HUMAN Splicing factor 4 (RNA-binding protein RBP).;2464,16;1,59;2;-0,04;2,97;0,35;158,85;2;0,33;2;3,9;12,3;;;;;;;;;;;;;;;;;;;;;;;;;;;;;;;;;;;;;;;;;;;;;;;;;;;;;;;;;;;;;;;;;;;;;;;;;;;;;;;;;;;;;;;;;;;;;;;;;;;;;;;;;;;;;;;;;;;;;;;;;;;;
TiO2_SDSPAGE_7.RAW;345;MS2;TVNSTREtPPKSK;A8K5D7|A8K5D7_HUMAN cDNA FLJ78256, highly similar to Homo sapiens heterochroma;1524,74;0,20;2;0,00;1,01;0,23;207,61;20;0,53;12;0,1;15,6;;;;;;;;;;;;;;;;;;;;;;;;;;;;;;;;;;;;;;;;;;;;;;;;;;;;;;;;;;;;;;;;;;;;;;;;;;;;;;;;;;;;;;;;;;;;;;;;;;;;;;;;;;;;;;;;;;;;;;;;;;;;
TiO2_SDSPAGE_7.RAW;346;MS3;TVNStRETPPKSK;A8K5D7|A8K5D7_HUMAN cDNA FLJ78256, highly similar to Homo sapiens heterochromat;1426,78;-0,20;2;0,00;2,60;0,31;548,27;1;0,63;12;4,3;9,5;;;;;;;;;;;;;;;;;;;;;;;;;;;;;;;;;;;;;;;;;;;;;;;;;;;;;;;;;;;;;;;;;;;;;;;;;;;;;;;;;;;;;;;;;;;;;;;;;;;;;;;;;;;;;;;;;;;;;;;;;;;;
IMAC_SDSPAGE_11.RAW;783;MS3;LVSFHDDsDEDLLHI;P11717|MPRI_HUMAN Cation-independent mannose-6-phosphate receptor precursor (CI;1736,8;0,06;2;-14,4;3,0;0,5;584,9;1;0,6;1;6,1;33,6;;;;;;;;;;;;;;;;;;;;;;;;;;;;;;;;;;;;;;;;;;;;;;;;;;;;;;;;;;;;;;;;;;;;;;;;;;;;;;;;;;;;;;;;;;;;;;;;;;;;;;;;;;;;;;;;;;;;;;;;;;;;
TiO2_SDSPAGE_5.RAW;606;MS2;LFEsSENIEDSNNPK;P34910|EVI2B_HUMAN EVI2B protein precursor (Ecotropic viral integration site 2;1802,75;0,41;2;0,00;2,32;0,04;509,74;2;0,50;1;1,6;17,9;;;;;;;;;;;;;;;;;;;;;;;;;;;;;;;;;;;;;;;;;;;;;;;;;;;;;;;;;;;;;;;;;;;;;;;;;;;;;;;;;;;;;;;;;;;;;;;;;;;;;;;;;;;;;;;;;;;;;;;;;;;;
TiO2_SDSPAGE_5.RAW;607;MS3;LFEsSENIEDSNNPK;P34910|EVI2B_HUMAN EVI2B protein precursor (Ecotropic viral integration site 2;1704,79;0,28;2;0,00;2,40;0,18;420,23;1;0,50;1;3,0;20,3;;;;;;;;;;;;;;;;;;;;;;;;;;;;;;;;;;;;;;;;;;;;;;;;;;;;;;;;;;;;;;;;;;;;;;;;;;;;;;;;;;;;;;;;;;;;;;;;;;;;;;;;;;;;;;;;;;;;;;;;;;;;
TiO2_SDSPAGE_8.RAW;474;MS2;IEDVGsDEEDDSGK;P08238|HS90B_HUMAN Heat shock protein HSP 90-beta (HSP 84) (HSP 90).;1574,57;-0,37;2;-4,69;4,18;0,48;1083,06;1;0,77;2;6,9;39,6;;;;;;;;;;;;;;;;;;;;;;;;;;;;;;;;;;;;;;;;;;;;;;;;;;;;;;;;;;;;;;;;;;;;;;;;;;;;;;;;;;;;;;;;;;;;;;;;;;;;;;;;;;;;;;;;;;;;;;;;;;;;
TiO2_SDSPAGE_8.RAW;475;MS3;IEDVGsDEEDDSGK;P08238|HS90B_HUMAN Heat shock protein HSP 90-beta (HSP 84) (HSP 90).;1476,61;0,21;2;-17,48;2,46;0,23;979,47;1;0,81;2;3,4;66,2;;;;;;;;;;;;;;;;;;;;;;;;;;;;;;;;;;;;;;;;;;;;;;;;;;;;;;;;;;;;;;;;;;;;;;;;;;;;;;;;;;;;;;;;;;;;;;;;;;;;;;;;;;;;;;;;;;;;;;;;;;;;
TiO2_SDSPAGE_4.RAW;463;MS2;PSSGNIPSSPTASGGGsPTSPR;Q9UBW5|BIN2_HUMAN Bridging integrator 2 (Breast cancer-associated protein 1).;2077,92;-0,34;2;-3,19;3,89;0,09;805,04;1;0,48;0;3,2;15,4;;;;;;;;;;;;;;;;;;;;;;;;;;;;;;;;;;;;;;;;;;;;;;;;;;;;;;;;;;;;;;;;;;;;;;;;;;;;;;;;;;;;;;;;;;;;;;;;;;;;;;;;;;;;;;;;;;;;;;;;;;;;
TiO2_SDSPAGE_4.RAW;464;MS3;PSSGNIPSSPTASGGGSPtSPR;Q9UBW5|BIN2_HUMAN Bridging integrator 2 (Breast cancer-associated protein 1).;1979,96;-0,36;2;-25,29;4,27;0,07;806,75;2;0,62;0;3,2;23,7;;;;;;;;;;;;;;;;;;;;;;;;;;;;;;;;;;;;;;;;;;;;;;;;;;;;;;;;;;;;;;;;;;;;;;;;;;;;;;;;;;;;;;;;;;;;;;;;;;;;;;;;;;;;;;;;;;;;;;;;;;;;
TiO2_SDSPAGE_6.RAW;919;MS2;mSsTFIGNSTAIQELFK;Q13509|TBB3_HUMAN Tubulin beta-3 chain (Tubulin beta-III) (Tubulin beta-4).;1871,94;-0,53;2;-14,76;4,54;0,24;1351,80;2;0,66;4;4,8;8,2;;;;;;;;;;;;;;;;;;;;;;;;;;;;;;;;;;;;;;;;;;;;;;;;;;;;;;;;;;;;;;;;;;;;;;;;;;;;;;;;;;;;;;;;;;;;;;;;;;;;;;;;;;;;;;;;;;;;;;;;;;;;
TiO2_SDSPAGE_7.RAW;533;MS3;PGPQSPGsPLEEER;Q9UMU2|NCF1_HUMAN Neutrophil cytosol factor 1 (NCF-1) (Neutrophil NADPH oxidase;1461,71;-0,30;2;-14,60;3,31;0,18;559,77;1;0,65;3;4,0;44,2;;;;;;;;;;;;;;;;;;;;;;;;;;;;;;;;;;;;;;;;;;;;;;;;;;;;;;;;;;;;;;;;;;;;;;;;;;;;;;;;;;;;;;;;;;;;;;;;;;;;;;;;;;;;;;;;;;;;;;;;;;;;
TiO2_SDSPAGE_4.RAW;564;MS2;ASLGTGTAsPRtSLEVSPNPEPPEKPVR;Q9UBW5|BIN2_HUMAN Bridging integrator 2 (Breast cancer-associated protein 1).;3034,43;-1,74;3;-0,02;2,61;0,04;294,71;2;0,16;0;1,1;3,9;;;;;;;;;;;;;;;;;;;;;;;;;;;;;;;;;;;;;;;;;;;;;;;;;;;;;;;;;;;;;;;;;;;;;;;;;;;;;;;;;;;;;;;;;;;;;;;;;;;;;;;;;;;;;;;;;;;;;;;;;;;;
TiO2_SDSPAGE_4.RAW;565;MS3;ASLGTGTAsPRtSLEVSPNPEPPEKPVR;Q9UBW5|BIN2_HUMAN Bridging integrator 2 (Breast cancer-associated protein 1).;2936,47;-1,50;3;-1,57;3,92;0,01;462,53;2;0,24;0;1,9;5,1;;;;;;;;;;;;;;;;;;;;;;;;;;;;;;;;;;;;;;;;;;;;;;;;;;;;;;;;;;;;;;;;;;;;;;;;;;;;;;;;;;;;;;;;;;;;;;;;;;;;;;;;;;;;;;;;;;;;;;;;;;;;
TiO2_SDSPAGE_5.RAW;480;MS2;TGVTSTsDsEEEGDDQEGEK;O75475|PSIP1_HUMAN PC4 and SFRS1-interacting protein (Lens epithelium-derived g;2259,77;-0,10;2;-7,29;5,04;0,06;302,47;1;0,36;0;3,9;6,3;;;;;;;;;;;;;;;;;;;;;;;;;;;;;;;;;;;;;;;;;;;;;;;;;;;;;;;;;;;;;;;;;;;;;;;;;;;;;;;;;;;;;;;;;;;;;;;;;;;;;;;;;;;;;;;;;;;;;;;;;;;;
TiO2_SDSPAGE_8.RAW;462;MS2;TGVTSTsDsEEEGDDQEGEK;O75475|PSIP1_HUMAN PC4 and SFRS1-interacting protein (Lens epithelium-derived g;2259,77;-1,18;2;-8,01;5,44;0,10;257,97;1;0,34;0;4,0;7,1;;;;;;;;;;;;;;;;;;;;;;;;;;;;;;;;;;;;;;;;;;;;;;;;;;;;;;;;;;;;;;;;;;;;;;;;;;;;;;;;;;;;;;;;;;;;;;;;;;;;;;;;;;;;;;;;;;;;;;;;;;;;
TiO2_SDSPAGE_8.RAW;463;MS3;TGVTSTsDsEEEGDDQEGEK;O75475|PSIP1_HUMAN PC4 and SFRS1-interacting protein (Lens epithelium-derived g;2161,81;-1,27;2;-1,94;3,33;0,04;301,43;1;0,35;0;2,3;6,3;;;;;;;;;;;;;;;;;;;;;;;;;;;;;;;;;;;;;;;;;;;;;;;;;;;;;;;;;;;;;;;;;;;;;;;;;;;;;;;;;;;;;;;;;;;;;;;;;;;;;;;;;;;;;;;;;;;;;;;;;;;;
TiO2_SDSPAGE_9.RAW;465;MS2;TGVTSTsDsEEEGDDQEGEK;O75475|PSIP1_HUMAN PC4 and SFRS1-interacting protein (Lens epithelium-derived g;2259,77;-0,41;2;-7,79;4,32;0,11;134,27;1;0,30;0;3,7;9,9;;;;;;;;;;;;;;;;;;;;;;;;;;;;;;;;;;;;;;;;;;;;;;;;;;;;;;;;;;;;;;;;;;;;;;;;;;;;;;;;;;;;;;;;;;;;;;;;;;;;;;;;;;;;;;;;;;;;;;;;;;;;
TiO2_SDSPAGE_2.RAW;885;MS3;sIRLPETIDLGALYLSMK;P08567|PLEK_HUMAN Pleckstrin (Platelet p47 protein).;2002,12;-0,77;2;-12,27;4,06;0,21;1768,56;1;0,71;2;4,4;55,2;;;;;;;;;;;;;;;;;;;;;;;;;;;;;;;;;;;;;;;;;;;;;;;;;;;;;;;;;;;;;;;;;;;;;;;;;;;;;;;;;;;;;;;;;;;;;;;;;;;;;;;;;;;;;;;;;;;;;;;;;;;;
IMAC_SDSPAGE_3.RAW;401;MS2;KSQAKIVIGLDNVAGVsVTsLK;Q9UBC5|MYO1A_HUMAN Myosin-Ia (Brush border myosin I) (BBM-I) (BBMI) (Myosin I ;2387,2;-1,04;3;0,0;2,5;0,4;195,5;4;0,2;0;3,5;5,0;;;;;;;;;;;;;;;;;;;;;;;;;;;;;;;;;;;;;;;;;;;;;;;;;;;;;;;;;;;;;;;;;;;;;;;;;;;;;;;;;;;;;;;;;;;;;;;;;;;;;;;;;;;;;;;;;;;;;;;;;;;;
TiO2_SDSPAGE_1.RAW;635;MS2;sPSPAHLPDDPKVAEK;Q92615|LARP5_HUMAN La-related protein 5 (La ribonucleoprotein domain family me;1669,87;0,27;2;-7,17;3,16;0,42;750,86;1;0,63;4;5,5;0,0;;;;;;;;;;;;;;;;;;;;;;;;;;;;;;;;;;;;;;;;;;;;;;;;;;;;;;;;;;;;;;;;;;;;;;;;;;;;;;;;;;;;;;;;;;;;;;;;;;;;;;;;;;;;;;;;;;;;;;;;;;;;
TiO2_SDSPAGE_1.RAW;644;MS2;sPSPAHLPDDPKVAEK;Q92615|LARP5_HUMAN La-related protein 5 (La ribonucleoprotein domain family me;1669,87;-0,33;2;-5,62;3,50;0,37;654,26;1;0,63;4;5,4;0,5;;;;;;;;;;;;;;;;;;;;;;;;;;;;;;;;;;;;;;;;;;;;;;;;;;;;;;;;;;;;;;;;;;;;;;;;;;;;;;;;;;;;;;;;;;;;;;;;;;;;;;;;;;;;;;;;;;;;;;;;;;;;
TiO2_SDSPAGE_1.RAW;772;MS3;ILsDVTHSAVFGVPASK;Q2M2I8|AAK1_HUMAN AP2-associated protein kinase 1 (EC 2.7.11.1) (Adaptor-associ;1709,94;-0,39;2;-10,09;3,19;0,10;889,30;1;0,53;0;3,0;32,4;;;;;;;;;;;;;;;;;;;;;;;;;;;;;;;;;;;;;;;;;;;;;;;;;;;;;;;;;;;;;;;;;;;;;;;;;;;;;;;;;;;;;;;;;;;;;;;;;;;;;;;;;;;;;;;;;;;;;;;;;;;;
TiO2_SDSPAGE_7.RAW;628;MS3;VVDYSQFQEsDDADEDYGRDSGPPTK;Q9H1E3|NUCKS_HUMAN Nuclear ubiquitous casein and cyclin-dependent kinases subst;2902,24;-1,65;3;-17,17;4,44;0,08;607,11;1;0,26;2;3,0;18,5;;;;;;;;;;;;;;;;;;;;;;;;;;;;;;;;;;;;;;;;;;;;;;;;;;;;;;;;;;;;;;;;;;;;;;;;;;;;;;;;;;;;;;;;;;;;;;;;;;;;;;;;;;;;;;;;;;;;;;;;;;;;
TiO2_SDSPAGE_11.RAW;878;MS2;TTGIVMDSGDGVTHTVPIyEGNALPHAtLR;Q6S8J3|A26CA_HUMAN ANKRD26-like family C member 1A (Prostate, ovary, testis-exp;3184,53;-1,84;3;-8,27;3,62;0,17;810,40;1;0,22;15;2,8;45,8;;;;;;;;;;;;;;;;;;;;;;;;;;;;;;;;;;;;;;;;;;;;;;;;;;;;;;;;;;;;;;;;;;;;;;;;;;;;;;;;;;;;;;;;;;;;;;;;;;;;;;;;;;;;;;;;;;;;;;;;;;;;
TiO2_SDSPAGE_4.RAW;762;MS2;TTGIVMDSGDGVTHTVPIyEGNALPHAtLR;Q6S8J3|A26CA_HUMAN ANKRD26-like family C member 1A (Prostate, ovary, testis-exp;3184,53;-1,29;3;-8,93;3,91;0,04;611,46;1;0,20;15;2,2;31,4;;;;;;;;;;;;;;;;;;;;;;;;;;;;;;;;;;;;;;;;;;;;;;;;;;;;;;;;;;;;;;;;;;;;;;;;;;;;;;;;;;;;;;;;;;;;;;;;;;;;;;;;;;;;;;;;;;;;;;;;;;;;
TiO2_SDSPAGE_7.RAW;834;MS2;TTGIVMDSGDGVTHTVPIyEGNALPHAtLR;Q6S8J3|A26CA_HUMAN ANKRD26-like family C member 1A (Prostate, ovary, testis-ex;3184,53;-1,48;3;-9,86;3,99;0,09;695,93;2;0,21;15;2,5;46,5;;;;;;;;;;;;;;;;;;;;;;;;;;;;;;;;;;;;;;;;;;;;;;;;;;;;;;;;;;;;;;;;;;;;;;;;;;;;;;;;;;;;;;;;;;;;;;;;;;;;;;;;;;;;;;;;;;;;;;;;;;;;
TiO2_SDSPAGE_4.RAW;751;MS2;MVLMLMDVCQyLVIDELDSGSKCEtKK;Q9ULA1|Q9ULA1_HUMAN R31155_1 (Zinc finger protein 667, isoform CRA_a).;3365,46;-1,11;3;-0,06;3,75;0,10;602,26;9;0,17;0;2,3;6,2;;;;;;;;;;;;;;;;;;;;;;;;;;;;;;;;;;;;;;;;;;;;;;;;;;;;;;;;;;;;;;;;;;;;;;;;;;;;;;;;;;;;;;;;;;;;;;;;;;;;;;;;;;;;;;;;;;;;;;;;;;;;
TiO2_SDSPAGE_4.RAW;362;MS2;EVsDSEAGGGPQGER;Q9BW71|HIRP3_HUMAN HIRA-interacting protein 3.;1554,61;-0,27;2;-14,22;3,49;0,11;1114,56;1;0,62;0;3,6;19,2;;;;;;;;;;;;;;;;;;;;;;;;;;;;;;;;;;;;;;;;;;;;;;;;;;;;;;;;;;;;;;;;;;;;;;;;;;;;;;;;;;;;;;;;;;;;;;;;;;;;;;;;;;;;;;;;;;;;;;;;;;;;
TiO2_SDSPAGE_4.RAW;363;MS3;EVsDSEAGGGPQGER;Q9BW71|HIRP3_HUMAN HIRA-interacting protein 3.;1456,65;-0,19;2;-7,85;2,38;0,08;451,84;1;0,43;0;2,2;2,2;;;;;;;;;;;;;;;;;;;;;;;;;;;;;;;;;;;;;;;;;;;;;;;;;;;;;;;;;;;;;;;;;;;;;;;;;;;;;;;;;;;;;;;;;;;;;;;;;;;;;;;;;;;;;;;;;;;;;;;;;;;;
TiO2_SDSPAGE_1.RAW;549;MS2;TDLyQKQMEVLETRMNVNEDK;Q8NEL0|CCD54_HUMAN Coiled-coil domain-containing protein 54 (Testis developmen;2664,20;0,34;3;0,00;3,38;0,07;452,73;8;0,23;0;2,4;0,0;;;;;;;;;;;;;;;;;;;;;;;;;;;;;;;;;;;;;;;;;;;;;;;;;;;;;;;;;;;;;;;;;;;;;;;;;;;;;;;;;;;;;;;;;;;;;;;;;;;;;;;;;;;;;;;;;;;;;;;;;;;;
TiO2_SDSPAGE_11.RAW;396;MS3;KSAsPEVSEGHENQHGQESEAK;O60930|RNH1_HUMAN Ribonuclease H1 (EC 3.1.26.4) (RNase H1) (Ribonuclease H type;2347,07;-0,43;3;-8,90;3,49;0,09;988,95;1;0,36;0;2,9;14,4;;;;;;;;;;;;;;;;;;;;;;;;;;;;;;;;;;;;;;;;;;;;;;;;;;;;;;;;;;;;;;;;;;;;;;;;;;;;;;;;;;;;;;;;;;;;;;;;;;;;;;;;;;;;;;;;;;;;;;;;;;;;
TiO2_SDSPAGE_11.RAW;1191;MS2;RALEtQMEEMKtQLEELEDELQASEDAK;Q7Z7R0|Q7Z7R0_HUMAN Smooth muscle myosin heavy chain (Fragment).;3454,47;0,06;3;0,00;4,03;0,02;281,43;1;0,18;0;2,6;26,9;;;;;;;;;;;;;;;;;;;;;;;;;;;;;;;;;;;;;;;;;;;;;;;;;;;;;;;;;;;;;;;;;;;;;;;;;;;;;;;;;;;;;;;;;;;;;;;;;;;;;;;;;;;;;;;;;;;;;;;;;;;;
TiO2_SDSPAGE_9.RAW;570;MS2;DSENLAsPSEYPENGER;Q9Y6J4|NUP98_HUMAN Nuclear pore complex protein Nup98-Nup96 precursor [Contains;1973,78;-0,41;2;-1,10;3,19;0,01;388,54;1;0,46;2;2,3;11,0;;;;;;;;;;;;;;;;;;;;;;;;;;;;;;;;;;;;;;;;;;;;;;;;;;;;;;;;;;;;;;;;;;;;;;;;;;;;;;;;;;;;;;;;;;;;;;;;;;;;;;;;;;;;;;;;;;;;;;;;;;;;
TiO2_SDSPAGE_9.RAW;571;MS3;DSENLAsPSEYPENGER;Q9Y6J4|NUP98_HUMAN Nuclear pore complex protein Nup98-Nup96 precursor [Contains;1875,81;-1,41;2;-0,12;2,77;0,13;727,65;1;0,56;2;2,5;28,8;;;;;;;;;;;;;;;;;;;;;;;;;;;;;;;;;;;;;;;;;;;;;;;;;;;;;;;;;;;;;;;;;;;;;;;;;;;;;;;;;;;;;;;;;;;;;;;;;;;;;;;;;;;;;;;;;;;;;;;;;;;;
TiO2_SDSPAGE_2.RAW;424;MS2;SQGDEAGGHGEDRPEPLsPK;Q9NZT4|OGFR_HUMAN Opioid growth factor receptor (OGFr) (Zeta-type opioid recept;2142,91;-1,04;3;-3,42;3,57;0,56;464,03;1;0,29;3;6,4;78,3;;;;;;;;;;;;;;;;;;;;;;;;;;;;;;;;;;;;;;;;;;;;;;;;;;;;;;;;;;;;;;;;;;;;;;;;;;;;;;;;;;;;;;;;;;;;;;;;;;;;;;;;;;;;;;;;;;;;;;;;;;;;
TiO2_SDSPAGE_2.RAW;425;MS3;SQGDEAGGHGEDRPEPLsPK;Q9NZT4|OGFR_HUMAN Opioid growth factor receptor (OGFr) (Zeta-type opioid recept;2044,95;-1,57;3;-8,84;3,97;0,48;493,84;1;0,34;3;5,9;84,5;;;;;;;;;;;;;;;;;;;;;;;;;;;;;;;;;;;;;;;;;;;;;;;;;;;;;;;;;;;;;;;;;;;;;;;;;;;;;;;;;;;;;;;;;;;;;;;;;;;;;;;;;;;;;;;;;;;;;;;;;;;;
TiO2_SDSPAGE_2.RAW;427;MS3;SQGDEAGGHGEDRPEPLsPK;Q9NZT4|OGFR_HUMAN Opioid growth factor receptor (OGFr) (Zeta-type opioid recept;2044,95;-1,10;2;-13,21;3,19;0,40;348,44;1;0,45;3;4,9;43,5;;;;;;;;;;;;;;;;;;;;;;;;;;;;;;;;;;;;;;;;;;;;;;;;;;;;;;;;;;;;;;;;;;;;;;;;;;;;;;;;;;;;;;;;;;;;;;;;;;;;;;;;;;;;;;;;;;;;;;;;;;;;
TiO2_SDSPAGE_5.RAW;761;MS2;GGEFDEFVNDDtDDDLPISK;Q6PD62|CTR9_HUMAN RNA polymerase-associated protein CTR9 homolog (SH2 domain-bi;2307,92;-0,23;2;-7,81;3,63;0,40;687,12;1;0,40;1;5,5;66,9;;;;;;;;;;;;;;;;;;;;;;;;;;;;;;;;;;;;;;;;;;;;;;;;;;;;;;;;;;;;;;;;;;;;;;;;;;;;;;;;;;;;;;;;;;;;;;;;;;;;;;;;;;;;;;;;;;;;;;;;;;;;
IMAC_SDSPAGE_2.RAW;670;MS3;LPDFKLYyKANQNtYR;Q6ZVF4|Q6ZVF4_HUMAN cDNA FLJ42639 fis, clone BRACE3024662.;2194,0;-1,66;3;0,0;2,7;0,2;315,5;4;0,2;0;2,4;7,7;;;;;;;;;;;;;;;;;;;;;;;;;;;;;;;;;;;;;;;;;;;;;;;;;;;;;;;;;;;;;;;;;;;;;;;;;;;;;;;;;;;;;;;;;;;;;;;;;;;;;;;;;;;;;;;;;;;;;;;;;;;;
TiO2_SDSPAGE_6.RAW;482;MS2;KEDESQMEDPSTsPSPGTR;Q9UI08|EVL_HUMAN Ena/VASP-like protein (Ena/vasodilator-stimulated phosphoprot;2157,86;0,83;3;-4,51;4,23;0,10;612,38;2;0,30;1;3,5;8,7;;;;;;;;;;;;;;;;;;;;;;;;;;;;;;;;;;;;;;;;;;;;;;;;;;;;;;;;;;;;;;;;;;;;;;;;;;;;;;;;;;;;;;;;;;;;;;;;;;;;;;;;;;;;;;;;;;;;;;;;;;;;
TiO2_SDSPAGE_9.RAW;675;MS2;FSKPPEDDDANSyENVLICK;Q9GZY6|NTAL_HUMAN Linker for activation of T-cells family member 2 (Non-T-cell;2421,03;1,30;3;-4,82;2,97;0,03;460,69;2;0,28;2;1,8;0,0;;;;;;;;;;;;;;;;;;;;;;;;;;;;;;;;;;;;;;;;;;;;;;;;;;;;;;;;;;;;;;;;;;;;;;;;;;;;;;;;;;;;;;;;;;;;;;;;;;;;;;;;;;;;;;;;;;;;;;;;;;;;
TiO2_SDSPAGE_9.RAW;676;MS3;FSKPPEDDDANsYENVLICK;Q9GZY6|NTAL_HUMAN Linker for activation of T-cells family member 2 (Non-T-cella;2323,07;-0,42;3;-8,52;3,94;0,44;1117,94;1;0,39;2;5,9;36,5;;;;;;;;;;;;;;;;;;;;;;;;;;;;;;;;;;;;;;;;;;;;;;;;;;;;;;;;;;;;;;;;;;;;;;;;;;;;;;;;;;;;;;;;;;;;;;;;;;;;;;;;;;;;;;;;;;;;;;;;;;;;
TiO2_SDSPAGE_2.RAW;751;MS2;ASSDLSIAsSEEDKLSQNACILESVSEK;Q9H2G2|SLK_HUMAN STE20-like serine/threonine-protein kinase (EC 2.7.11.1) (STE;3077,39;-1,89;3;0,00;3,61;0,49;332,98;2;0,20;0;5,1;6,3;;;;;;;;;;;;;;;;;;;;;;;;;;;;;;;;;;;;;;;;;;;;;;;;;;;;;;;;;;;;;;;;;;;;;;;;;;;;;;;;;;;;;;;;;;;;;;;;;;;;;;;;;;;;;;;;;;;;;;;;;;;;
TiO2_SDSPAGE_9.RAW;467;MS2;KDDEDEEEEEEVsDS;Q8TAD8|SNIP1_HUMAN Smad nuclear-interacting protein 1.;1863,62;1,27;2;-0,21;3,34;0,37;240,07;2;0,40;1;4,9;1000,0;;;;;;;;;;;;;;;;;;;;;;;;;;;;;;;;;;;;;;;;;;;;;;;;;;;;;;;;;;;;;;;;;;;;;;;;;;;;;;;;;;;;;;;;;;;;;;;;;;;;;;;;;;;;;;;;;;;;;;;;;;;;
TiO2_SDSPAGE_4.RAW;675;MS2;KPATPAEDDEDDDIDLFGsDNEEEDKEAAQLR;P29692|EF1D_HUMAN Elongation factor 1-delta (EF-1-delta) (Antigen NY-CO-4).;3657,52;-0,79;3;-9,55;5,06;0,52;656,82;1;0,24;5;6,6;82,5;;;;;;;;;;;;;;;;;;;;;;;;;;;;;;;;;;;;;;;;;;;;;;;;;;;;;;;;;;;;;;;;;;;;;;;;;;;;;;;;;;;;;;;;;;;;;;;;;;;;;;;;;;;;;;;;;;;;;;;;;;;;
TiO2_SDSPAGE_4.RAW;769;MS2;TQESGDQDPQEAQKAsSAtERTQWGQK;O00515|LAD1_HUMAN Ladinin 1 (Lad-1) (120 kDa linear IgA bullous dermatosis ant;3151,30;-0,17;3;0,00;3,25;0,18;317,99;20;0,18;2;2,7;4,1;;;;;;;;;;;;;;;;;;;;;;;;;;;;;;;;;;;;;;;;;;;;;;;;;;;;;;;;;;;;;;;;;;;;;;;;;;;;;;;;;;;;;;;;;;;;;;;;;;;;;;;;;;;;;;;;;;;;;;;;;;;;
TiO2_SDSPAGE_9.RAW;502;MS3;sVGQRPVPGVGR;O00160|MYO1F_HUMAN Myosin-If (Myosin-Ie).;1190,69;-0,53;2;-7,69;2,99;0,28;420,87;1;0,68;2;4,5;1000,0;;;;;;;;;;;;;;;;;;;;;;;;;;;;;;;;;;;;;;;;;;;;;;;;;;;;;;;;;;;;;;;;;;;;;;;;;;;;;;;;;;;;;;;;;;;;;;;;;;;;;;;;;;;;;;;;;;;;;;;;;;;;
TiO2_SDSPAGE_8.RAW;1030;MS2;LVSARSVsPtTEMVSNESVDYRATFPE;Q9UEJ3|Q9UEJ3_HUMAN Proto-oncogenic met protein (Fragment).;2936,44;-1,15;3;0,00;3,78;0,05;528,80;2;0,26;0;2,2;5,7;;;;;;;;;;;;;;;;;;;;;;;;;;;;;;;;;;;;;;;;;;;;;;;;;;;;;;;;;;;;;;;;;;;;;;;;;;;;;;;;;;;;;;;;;;;;;;;;;;;;;;;;;;;;;;;;;;;;;;;;;;;;
TiO2_SDSPAGE_3.RAW;453;MS3;PstPIPPQEGEEVGESSEEQDNAPKSVLGKVK;Q9UDY2|ZO2_HUMAN Tight junction protein ZO-2 (Zonula occludens protein 2) (Zona;3326,67;-1,38;3;-0,07;3,68;0,02;432,97;1;0,22;0;1,8;7,9;;;;;;;;;;;;;;;;;;;;;;;;;;;;;;;;;;;;;;;;;;;;;;;;;;;;;;;;;;;;;;;;;;;;;;;;;;;;;;;;;;;;;;;;;;;;;;;;;;;;;;;;;;;;;;;;;;;;;;;;;;;;
TiO2_SDSPAGE_5.RAW;509;MS3;PstPIPPQEGEEVGESSEEQDNAPKSVLGKVK;Q9UDY2|ZO2_HUMAN Tight junction protein ZO-2 (Zonula occludens protein 2) (Zona;3326,67;-1,58;3;-1,04;3,95;0,00;471,07;1;0,23;0;1,9;10,1;;;;;;;;;;;;;;;;;;;;;;;;;;;;;;;;;;;;;;;;;;;;;;;;;;;;;;;;;;;;;;;;;;;;;;;;;;;;;;;;;;;;;;;;;;;;;;;;;;;;;;;;;;;;;;;;;;;;;;;;;;;;
IMAC_SDSPAGE_3.RAW;157;MS2;KRSPsPSPtPEAK;Q8TAQ2|SMRC2_HUMAN SWI/SNF-related matrix-associated actin-dependent regulator;1541,7;0,16;2;0,0;2,1;0,0;227,3;9;0,6;2;1,2;7,3;;;;;;;;;;;;;;;;;;;;;;;;;;;;;;;;;;;;;;;;;;;;;;;;;;;;;;;;;;;;;;;;;;;;;;;;;;;;;;;;;;;;;;;;;;;;;;;;;;;;;;;;;;;;;;;;;;;;;;;;;;;;
IMAC_SDSPAGE_3.RAW;158;MS3;KRsPSPsPTPEAK;Q8TAQ2|SMRC2_HUMAN SWI/SNF-related matrix-associated actin-dependent regulator;1443,7;0,38;2;0,0;1,4;0,1;231,1;3;0,6;2;0,1;7,0;;;;;;;;;;;;;;;;;;;;;;;;;;;;;;;;;;;;;;;;;;;;;;;;;;;;;;;;;;;;;;;;;;;;;;;;;;;;;;;;;;;;;;;;;;;;;;;;;;;;;;;;;;;;;;;;;;;;;;;;;;;;
IMAC_SDSPAGE_11.RAW;813;MS2;RMssLVGPTQSFFMR;P11836|CD20_HUMAN B-lymphocyte antigen CD20 (Membrane-spanning 4-domains subfam;1903,8;-0,08;2;-10,7;4,2;0,3;787,3;1;0,6;1;5,6;28,7;;;;;;;;;;;;;;;;;;;;;;;;;;;;;;;;;;;;;;;;;;;;;;;;;;;;;;;;;;;;;;;;;;;;;;;;;;;;;;;;;;;;;;;;;;;;;;;;;;;;;;;;;;;;;;;;;;;;;;;;;;;;
IMAC_SDSPAGE_11.RAW;814;MS3;RMssLVGPTQSFFMR;P11836|CD20_HUMAN B-lymphocyte antigen CD20 (Membrane-spanning 4-domains subfa;1805,8;0,04;2;-4,1;2,3;0,1;154,1;2;0,4;1;2,4;25,9;;;;;;;;;;;;;;;;;;;;;;;;;;;;;;;;;;;;;;;;;;;;;;;;;;;;;;;;;;;;;;;;;;;;;;;;;;;;;;;;;;;;;;;;;;;;;;;;;;;;;;;;;;;;;;;;;;;;;;;;;;;;
IMAC_SDSPAGE_11.RAW;387;MS2;EELRNQLLNVDLtK;Q9Y592|CCD41_HUMAN Coiled-coil domain-containing protein 41 (Renal carcinoma a;1764,9;0,63;3;0,0;2,7;0,2;619,3;4;0,4;3;2,9;1000,0;;;;;;;;;;;;;;;;;;;;;;;;;;;;;;;;;;;;;;;;;;;;;;;;;;;;;;;;;;;;;;;;;;;;;;;;;;;;;;;;;;;;;;;;;;;;;;;;;;;;;;;;;;;;;;;;;;;;;;;;;;;;
TiO2_SDSPAGE_6.RAW;818;MS2;GIPLATGDTsPEPELLPGAPLPPPKEVINGNIK;O75821|EIF3G_HUMAN Eukaryotic translation initiation factor 3 subunit G (Eukary;3411,78;-1,07;3;-19,13;4,84;0,01;546,72;1;0,20;3;2,5;19,7;;;;;;;;;;;;;;;;;;;;;;;;;;;;;;;;;;;;;;;;;;;;;;;;;;;;;;;;;;;;;;;;;;;;;;;;;;;;;;;;;;;;;;;;;;;;;;;;;;;;;;;;;;;;;;;;;;;;;;;;;;;;
TiO2_SDSPAGE_4.RAW;602;MS3;WSNGFELADGVVsR;inv_Q7M4S5;1518,75;0,16;2;-0,10;1,32;0,19;412,57;3;0,50;1;1,0;32,1;;;;;;;;;;;;;;;;;;;;;;;;;;;;;;;;;;;;;;;;;;;;;;;;;;;;;;;;;;;;;;;;;;;;;;;;;;;;;;;;;;;;;;;;;;;;;;;;;;;;;;;;;;;;;;;;;;;;;;;;;;;;
TiO2_SDSPAGE_6.RAW;656;MS2;DHNSEDEDEDKyADDIDMPGQNFDSK;O95391|SLU7_HUMAN Pre-mRNA-splicing factor SLU7 (hSlu7).;3109,15;-1,13;3;-0,16;2,61;0,48;360,42;4;0,20;0;4,4;31,7;;;;;;;;;;;;;;;;;;;;;;;;;;;;;;;;;;;;;;;;;;;;;;;;;;;;;;;;;;;;;;;;;;;;;;;;;;;;;;;;;;;;;;;;;;;;;;;;;;;;;;;;;;;;;;;;;;;;;;;;;;;;
TiO2_SDSPAGE_5.RAW;623;MS2;SQsDCGELGDFR;Q6JBY9|CPZIP_HUMAN Capz-interacting protein (Protein kinase substrate CapZIP) (;1450,53;-0,16;2;-11,01;3,48;0,11;1012,03;1;0,82;2;3,9;19,3;;;;;;;;;;;;;;;;;;;;;;;;;;;;;;;;;;;;;;;;;;;;;;;;;;;;;;;;;;;;;;;;;;;;;;;;;;;;;;;;;;;;;;;;;;;;;;;;;;;;;;;;;;;;;;;;;;;;;;;;;;;;
TiO2_SDSPAGE_5.RAW;624;MS3;SQsDCGELGDFR;Q6JBY9|CPZIP_HUMAN Capz-interacting protein (Protein kinase substrate CapZIP) (;1352,57;-0,15;2;-10,51;3,23;0,13;1300,09;1;0,82;2;3,8;25,4;;;;;;;;;;;;;;;;;;;;;;;;;;;;;;;;;;;;;;;;;;;;;;;;;;;;;;;;;;;;;;;;;;;;;;;;;;;;;;;;;;;;;;;;;;;;;;;;;;;;;;;;;;;;;;;;;;;;;;;;;;;;
TiO2_SDSPAGE_5.RAW;600;MS2;GNAEGssDEEGKLVIDEPAKEK;P51858|HDGF_HUMAN Hepatoma-derived growth factor (HDGF) (High-mobility group pr;2462,04;-0,19;2;0,00;4,26;0,32;295,30;1;0,38;3;5,2;1000,0;;;;;;;;;;;;;;;;;;;;;;;;;;;;;;;;;;;;;;;;;;;;;;;;;;;;;;;;;;;;;;;;;;;;;;;;;;;;;;;;;;;;;;;;;;;;;;;;;;;;;;;;;;;;;;;;;;;;;;;;;;;;
TiO2_SDSPAGE_9.RAW;587;MS3;GNAEGSsDEEGKLVIDEPAKEK;P51858|HDGF_HUMAN Hepatoma-derived growth factor (HDGF) (High-mobility group p;2284,11;-1,76;3;-7,80;3,48;0,18;855,82;5;0,31;3;2,8;7,8;;;;;;;;;;;;;;;;;;;;;;;;;;;;;;;;;;;;;;;;;;;;;;;;;;;;;;;;;;;;;;;;;;;;;;;;;;;;;;;;;;;;;;;;;;;;;;;;;;;;;;;;;;;;;;;;;;;;;;;;;;;;
TiO2_SDSPAGE_10.RAW;515;MS2;AETSEGSGSAPAVPEAsASPK;P51608|MECP2_HUMAN Methyl-CpG-binding protein 2 (MeCP-2 protein) (MeCP2).;2009,87;1,89;2;0,00;2,94;0,37;283,68;1;0,37;2;4,2;7,4;;;;;;;;;;;;;;;;;;;;;;;;;;;;;;;;;;;;;;;;;;;;;;;;;;;;;;;;;;;;;;;;;;;;;;;;;;;;;;;;;;;;;;;;;;;;;;;;;;;;;;;;;;;;;;;;;;;;;;;;;;;;
TiO2_SDSPAGE_6.RAW;517;MS2;AETSEGSGSAPAVPEASAsPK;P51608|MECP2_HUMAN Methyl-CpG-binding protein 2 (MeCP-2 protein) (MeCP2).;2009,87;-0,22;2;-17,80;5,72;0,16;797,78;1;0,45;2;4,9;37,1;;;;;;;;;;;;;;;;;;;;;;;;;;;;;;;;;;;;;;;;;;;;;;;;;;;;;;;;;;;;;;;;;;;;;;;;;;;;;;;;;;;;;;;;;;;;;;;;;;;;;;;;;;;;;;;;;;;;;;;;;;;;
TiO2_SDSPAGE_8.RAW;519;MS2;AETSEGSGSAPAVPEASAsPK;P51608|MECP2_HUMAN Methyl-CpG-binding protein 2 (MeCP-2 protein) (MeCP2).;2009,87;-1,43;2;-10,01;5,71;0,09;908,79;1;0,45;2;4,0;28,2;;;;;;;;;;;;;;;;;;;;;;;;;;;;;;;;;;;;;;;;;;;;;;;;;;;;;;;;;;;;;;;;;;;;;;;;;;;;;;;;;;;;;;;;;;;;;;;;;;;;;;;;;;;;;;;;;;;;;;;;;;;;
TiO2_SDSPAGE_10.RAW;448;MS2;DDEKEAEEGEDDRDsANGEDDS;Q96HM4|HNRPC_HUMAN Heterogeneous nuclear ribonucleoproteins C1/C2 (hnRNP C1 / h;2506,85;-0,22;2;-12,32;4,20;0,16;223,59;1;0,35;3;4,0;1000,0;;;;;;;;;;;;;;;;;;;;;;;;;;;;;;;;;;;;;;;;;;;;;;;;;;;;;;;;;;;;;;;;;;;;;;;;;;;;;;;;;;;;;;;;;;;;;;;;;;;;;;;;;;;;;;;;;;;;;;;;;;;;
TiO2_SDSPAGE_10.RAW;449;MS3;DDEKEAEEGEDDRDsANGEDDS;Q96HM4|HNRPC_HUMAN Heterogeneous nuclear ribonucleoproteins C1/C2 (hnRNP C1 / h;2408,89;-0,22;2;-14,04;3,13;0,14;712,16;1;0,50;3;3,0;1000,0;;;;;;;;;;;;;;;;;;;;;;;;;;;;;;;;;;;;;;;;;;;;;;;;;;;;;;;;;;;;;;;;;;;;;;;;;;;;;;;;;;;;;;;;;;;;;;;;;;;;;;;;;;;;;;;;;;;;;;;;;;;;
TiO2_SDSPAGE_4.RAW;469;MS2;ESEDKPEIEDVGsDEEEEKK;P07900|HS90A_HUMAN Heat shock protein HSP 90-alpha (HSP 86) (Renal carcinoma a;2400,98;-1,36;3;-0,35;2,85;0,51;249,90;12;0,26;5;4,8;29,9;;;;;;;;;;;;;;;;;;;;;;;;;;;;;;;;;;;;;;;;;;;;;;;;;;;;;;;;;;;;;;;;;;;;;;;;;;;;;;;;;;;;;;;;;;;;;;;;;;;;;;;;;;;;;;;;;;;;;;;;;;;;
TiO2_SDSPAGE_4.RAW;470;MS3;ESEDKPEIEDVGsDEEEEKK;P07900|HS90A_HUMAN Heat shock protein HSP 90-alpha (HSP 86) (Renal carcinoma an;2303,02;-1,87;3;-17,84;3,57;0,45;1096,34;1;0,37;5;5,3;67,5;;;;;;;;;;;;;;;;;;;;;;;;;;;;;;;;;;;;;;;;;;;;;;;;;;;;;;;;;;;;;;;;;;;;;;;;;;;;;;;;;;;;;;;;;;;;;;;;;;;;;;;;;;;;;;;;;;;;;;;;;;;;
TiO2_SDSPAGE_6.RAW;532;MS2;ESEDKPEIEDVGsDEEEEKK;P07900|HS90A_HUMAN Heat shock protein HSP 90-alpha (HSP 86) (Renal carcinoma an;2400,98;-0,59;3;-4,85;4,63;0,58;382,34;1;0,30;5;7,4;64,2;;;;;;;;;;;;;;;;;;;;;;;;;;;;;;;;;;;;;;;;;;;;;;;;;;;;;;;;;;;;;;;;;;;;;;;;;;;;;;;;;;;;;;;;;;;;;;;;;;;;;;;;;;;;;;;;;;;;;;;;;;;;
TiO2_SDSPAGE_6.RAW;533;MS3;ESEDKPEIEDVGsDEEEEKK;P07900|HS90A_HUMAN Heat shock protein HSP 90-alpha (HSP 86) (Renal carcinoma an;2303,02;-1,43;3;-7,56;3,59;0,32;1116,78;1;0,38;5;4,5;80,2;;;;;;;;;;;;;;;;;;;;;;;;;;;;;;;;;;;;;;;;;;;;;;;;;;;;;;;;;;;;;;;;;;;;;;;;;;;;;;;;;;;;;;;;;;;;;;;;;;;;;;;;;;;;;;;;;;;;;;;;;;;;
TiO2_SDSPAGE_7.RAW;528;MS3;ESEDKPEIEDVGsDEEEEKK;P07900|HS90A_HUMAN Heat shock protein HSP 90-alpha (HSP 86) (Renal carcinoma an;2303,02;-0,68;3;-11,97;4,25;0,41;1186,33;1;0,39;5;5,9;75,4;;;;;;;;;;;;;;;;;;;;;;;;;;;;;;;;;;;;;;;;;;;;;;;;;;;;;;;;;;;;;;;;;;;;;;;;;;;;;;;;;;;;;;;;;;;;;;;;;;;;;;;;;;;;;;;;;;;;;;;;;;;;
TiO2_SDSPAGE_8.RAW;528;MS2;ESEDKPEIEDVGsDEEEEKK;P07900|HS90A_HUMAN Heat shock protein HSP 90-alpha (HSP 86) (Renal carcinoma an;2400,98;0,19;3;-7,11;4,19;0,57;616,17;1;0,37;5;7,1;58,5;;;;;;;;;;;;;;;;;;;;;;;;;;;;;;;;;;;;;;;;;;;;;;;;;;;;;;;;;;;;;;;;;;;;;;;;;;;;;;;;;;;;;;;;;;;;;;;;;;;;;;;;;;;;;;;;;;;;;;;;;;;;
TiO2_SDSPAGE_8.RAW;529;MS3;ESEDKPEIEDVGsDEEEEKK;P07900|HS90A_HUMAN Heat shock protein HSP 90-alpha (HSP 86) (Renal carcinoma an;2303,02;-0,85;3;-10,63;2,99;0,33;621,95;1;0,32;5;4,3;110,2;;;;;;;;;;;;;;;;;;;;;;;;;;;;;;;;;;;;;;;;;;;;;;;;;;;;;;;;;;;;;;;;;;;;;;;;;;;;;;;;;;;;;;;;;;;;;;;;;;;;;;;;;;;;;;;;;;;;;;;;;;;;
